1542093661,12,0,10000
1542093662,12,0,10001
1542093663,12,0,10001
1542093664,12,0,10001
1542093665,12,0,10001
1542093666,12,0,10001
1542093667,12,0,10002
1542093668,12,0,10002
1542093669,12,0,10002
1542093670,12,0,10002
1542093671,12,0,10002
1542093672,12,0,10002
1542093673,4,0,10003
1542093674,4,0,10003
1542093675,4,0,10004
1542093676,4,0,10005
1542093677,4,0,10006
1542093678,4,0,10006
1542093679,11,0,10009
1542093680,11,0,10010
1542093681,11,0,10011
1542093682,9,0,10012
1542093683,9,0,10013
1542093684,9,0,10014
1542093685,9,0,10015
1542093686,9,0,10016
1542093687,9,0,10017
1542093688,9,0,10017
1542093689,11,0,10017
1542093690,9,0,10018
1542093691,9,0,10018
1542093692,9,0,10018
1542093693,11,0,10019
1542093694,11,0,10019
1542093695,11,0,10019
1542093696,11,0,10019
1542093697,11,0,10019
1542093698,11,0,10019
1542093699,11,0,10020
1542093700,11,0,10020
1542093701,8,0,10021
1542093702,8,0,10021
1542093703,8,0,10021
1542093704,8,0,10022
1542093705,8,0,10022
1542093706,8,0,10022
1542093707,11,0,10023
1542093708,4,0,10023
1542093709,8,0,10024
1542093710,6,0,10024
1542093711,12,0,10024
1542093712,6,0,10025
1542093713,4,0,10025
1542093714,8,0,10025
1542093715,6,0,10026
1542093716,12,0,10026
1542093717,6,0,10026